{
  "extensions": [
    {
      "id": "jtl_paypal",
      "type": "plugin",
      "name": "PayPal für JTL-Shop 5",
      "exsid": "dk44djdnUm1LVlE9PSIsInZhbHVlIjoiVWZD",
      "license": {
        "key": "LIC-1201",
        "type": "free",
        "created": "2020-01-01T12:00:00.000Z",
        "validUntil": null,
        "subscription": {
          "validUntil": "2021-02-04T00:00:00.000Z"
        }
      },
      "vendor": {
        "name": "JTL-Software",
        "href": "https:\/\/www.jtl-software.de\/ext-store\/jtl-software-gmbh"
      },
      "releases": {
        "available": {
          "version": "2.0.0-beta.16",
          "type": "security",
          "releaseDate": "2020-04-06T12:12:52.620Z",
          "shortDescription": "Fixes XSS-Bug in Checkout Flow",
          "downloadUrl": "https:\/\/shop5.moches.de\/downloads\/jtl_paypal_2.0.0-beta16.zip"
        },
        "latest": {
          "version": "4.2.1",
          "type": "feature",
          "includesSecurityFixes": "true",
          "releaseDate": "2020-04-06T12:12:52.620Z",
          "shortDescription": "Introduces new Feature XYZ",
          "downloadUrl": "https:\/\/storage.jtl-software.com/extensions\/get\/dk44djdnUm1LVlE9PSIsInZhbHVlIjoiVWZD"
        }
      },
      "links": [
        {
          "href": "https:\/\/guide.jtl-software.com\/erweiterungen\/paypal",
          "rel": "documentation"
        },
        {
          "href": "https:\/\/www.jtl-software.com\/ext-store\/jtl_paypal",
          "rel": "itemDetails"
        },
        {
          "href": "https:\/\/api.jtl-software.com\/ext-store\/bind/dk44djdnUm1LVlE9PSIsInZhbHVlIjoiVWZD",
          "rel": "setBinding"
        },
        {
          "href": "https:\/\/checkout.jtl-software.com\/extensions\/extendsub/dk44djdnUm1LVlE9PSIsInZhbHVlIjoiVWZD",
          "rel": "extendSubscription"
        }
      ]
    },
    {
      "id": "jtl_widgets",
      "type": "plugin",
      "name": "Widgets für JTL-Shop 5",
      "exsid": "jtlw44djdnUm1LVlE9PSIsInZhbHVlIjoiVWZD",
      "license": {
        "key": "LIC-1201",
        "type": "free",
        "created": "2020-01-01T12:00:00.000Z",
        "validUntil": null,
        "subscription": {
          "validUntil": "2021-02-04T00:00:00.000Z"
        }
      },
      "vendor": {
        "name": "JTL-Software",
        "href": "https:\/\/www.jtl-software.de\/ext-store\/jtl-software-gmbh"
      },
      "releases": {
        "available": {
          "version": "2.0.1",
          "type": "security",
          "releaseDate": "2020-04-06T12:12:52.620Z",
          "shortDescription": "Fixes XSS-Bug in Checkout Flow",
          "downloadUrl": "https:\/\/shop5.moches.de\/downloads\/jtl_widgets_2.0.1.zip"
        },
        "latest": {
          "version": "2.0.1",
          "type": "feature",
          "includesSecurityFixes": "true",
          "releaseDate": "2020-04-06T12:12:52.620Z",
          "shortDescription": "Introduces new Feature XYZ",
          "downloadUrl": "https:\/\/storage.jtl-software.com/extensions\/get\/dk44djdnUm1LVlE9PSIsInZhbHVlIjoiVWZD"
        }
      },
      "links": [
        {
          "href": "https:\/\/guide.jtl-software.com\/erweiterungen\/paypal",
          "rel": "documentation"
        },
        {
          "href": "https:\/\/www.jtl-software.com\/ext-store\/jtl_paypal",
          "rel": "itemDetails"
        },
        {
          "href": "https:\/\/api.jtl-software.com\/ext-store\/bind/dk44djdnUm1LVlE9PSIsInZhbHVlIjoiVWZD",
          "rel": "setBinding"
        },
        {
          "href": "https:\/\/checkout.jtl-software.com\/extensions\/extendsub/dk44djdnUm1LVlE9PSIsInZhbHVlIjoiVWZD",
          "rel": "extendSubscription"
        }
      ]
    },
    {
      "id": "jtl_blubb",
      "type": "plugin",
      "name": "Macht gar nichts und ist auch nicht installiert",
      "exsid": "jtlblubbasdfasdfasd2",
      "license": {
        "key": "LIC-1201",
        "type": "free",
        "created": "2020-01-01T12:00:00.000Z",
        "validUntil": null,
        "subscription": {
          "validUntil": "2021-02-04T00:00:00.000Z"
        }
      },
      "vendor": {
        "name": "JTL-Software",
        "href": "https:\/\/www.jtl-software.de\/ext-store\/jtl-software-gmbh"
      },
      "releases": {
        "available": {
          "version": "1.0.0",
          "type": "security",
          "releaseDate": "2020-04-06T12:12:52.620Z",
          "shortDescription": "Fixes XSS-Bug in Checkout Flow",
          "downloadUrl": "https:\/\/shop5.moches.de\/downloads\/jtl_blubb_1.0.0.zip"
        },
        "latest": {
          "version": "1.0.0",
          "type": "feature",
          "includesSecurityFixes": "true",
          "releaseDate": "2020-04-06T12:12:52.620Z",
          "shortDescription": "Introduces new Feature XYZ",
          "downloadUrl": "https:\/\/shop5.moches.de\/downloads\/jtl_blubb_1.0.0.zip"
        }
      },
      "links": [
        {
          "href": "https:\/\/guide.jtl-software.com\/erweiterungen\/paypal",
          "rel": "documentation"
        },
        {
          "href": "https:\/\/www.jtl-software.com\/ext-store\/jtl_paypal",
          "rel": "itemDetails"
        },
        {
          "href": "https:\/\/api.jtl-software.com\/ext-store\/bind/dk44djdnUm1LVlE9PSIsInZhbHVlIjoiVWZD",
          "rel": "setBinding"
        },
        {
          "href": "https:\/\/checkout.jtl-software.com\/extensions\/extendsub/dk44djdnUm1LVlE9PSIsInZhbHVlIjoiVWZD",
          "rel": "extendSubscription"
        }
      ]
    },
    {
      "id": "jtl_foo",
      "type": "plugin",
      "name": "Macht gar nichts und ist auch nicht installiert2",
      "exsid": "jtlfoobasdfasdfasd2",
      "license": {
        "key": "LIC-1201",
        "type": "free",
        "created": "2020-01-01T12:00:00.000Z",
        "validUntil": null,
        "subscription": {
          "validUntil": "2021-02-04T00:00:00.000Z"
        }
      },
      "vendor": {
        "name": "JTL-Software",
        "href": "https:\/\/www.jtl-software.de\/ext-store\/jtl-software-gmbh"
      },
      "releases": {
        "available": {
          "version": "1.2.3",
          "type": "security",
          "releaseDate": "2020-04-06T12:12:52.620Z",
          "shortDescription": "Fixes XSS-Bug in Checkout Flow",
          "downloadUrl": "https:\/\/shop5.moches.de\/downloads\/jtl_foo_1.2.3.zip"
        },
        "latest": {
          "version": "1.2.3",
          "type": "feature",
          "includesSecurityFixes": "true",
          "releaseDate": "2020-04-06T12:12:52.620Z",
          "shortDescription": "Introduces new Feature XYZ",
          "downloadUrl": "https:\/\/shop5.moches.de\/downloads\/jtl_foo_1.2.3.zip"
        }
      },
      "links": [
        {
          "href": "https:\/\/guide.jtl-software.com\/erweiterungen\/paypal",
          "rel": "documentation"
        },
        {
          "href": "https:\/\/www.jtl-software.com\/ext-store\/jtl_paypal",
          "rel": "itemDetails"
        },
        {
          "href": "https:\/\/api.jtl-software.com\/ext-store\/bind/dk44djdnUm1LVlE9PSIsInZhbHVlIjoiVWZD",
          "rel": "setBinding"
        },
        {
          "href": "https:\/\/checkout.jtl-software.com\/extensions\/extendsub/dk44djdnUm1LVlE9PSIsInZhbHVlIjoiVWZD",
          "rel": "extendSubscription"
        }
      ]
    },
    {
      "id": "jtl_bar",
      "type": "plugin",
      "name": "Macht gar nichts und ist auch nicht installiert3",
      "exsid": "jtlbarbasdfasdfasd2",
      "license": {
        "key": "LIC-1201",
        "type": "free",
        "created": "2020-01-01T12:00:00.000Z",
        "validUntil": null,
        "subscription": {
          "validUntil": "2021-02-04T00:00:00.000Z"
        }
      },
      "vendor": {
        "name": "JTL-Software",
        "href": "https:\/\/www.jtl-software.de\/ext-store\/jtl-software-gmbh"
      },
      "releases": {
        "available": {
          "version": "4.3.2",
          "type": "security",
          "releaseDate": "2020-04-06T12:12:52.620Z",
          "shortDescription": "Fixes XSS-Bug in Checkout Flow",
          "downloadUrl": "https:\/\/shop5.moches.de\/downloads\/jtl_bar_4.3.2.zip"
        },
        "latest": {
          "version": "4.3.2",
          "type": "feature",
          "includesSecurityFixes": "true",
          "releaseDate": "2020-04-06T12:12:52.620Z",
          "shortDescription": "Introduces new Feature XYZ",
          "downloadUrl": "https:\/\/shop5.moches.de\/downloads\/jtl_bar_4.3.2.zip"
        }
      },
      "links": [
        {
          "href": "https:\/\/guide.jtl-software.com\/erweiterungen\/paypal",
          "rel": "documentation"
        },
        {
          "href": "https:\/\/www.jtl-software.com\/ext-store\/jtl_paypal",
          "rel": "itemDetails"
        },
        {
          "href": "https:\/\/api.jtl-software.com\/ext-store\/bind/dk44djdnUm1LVlE9PSIsInZhbHVlIjoiVWZD",
          "rel": "setBinding"
        },
        {
          "href": "https:\/\/checkout.jtl-software.com\/extensions\/extendsub/dk44djdnUm1LVlE9PSIsInZhbHVlIjoiVWZD",
          "rel": "extendSubscription"
        }
      ]
    },
    {
      "id": "jtl_test",
      "type": "plugin",
      "name": "Ein Demo- und Testplugin",
      "exsid": "ek44djdnUm1LVlE9PSIsInZhbHVlIjoiVWZD",
      "license": {
        "key": "LIC-1202",
        "type": "prod",
        "created": "2020-01-01T12:00:00.000Z",
        "validUntil": "2022-02-09T00:00:00.000Z",
        "subscription": {
          "validUntil": null
        }
      },
      "vendor": {
        "name": "JTL-Software",
        "href": "https:\/\/www.jtl-software.de\/ext-store\/jtl-software-gmbh"
      },
      "releases": {
        "available": {
          "version": "1.0.8",
          "type": "security",
          "releaseDate": "2020-04-06T12:12:52.620Z",
          "shortDescription": "Fixes XSS-Bug in Checkout Flow",
          "downloadUrl": "https:\/\/shop5.moches.de\/downloads\/jtl_test108OK.zip"
        },
        "latest": {
          "version": "2.0.1",
          "type": "feature",
          "includesSecurityFixes": "true",
          "releaseDate": "2020-04-06T12:12:52.620Z",
          "shortDescription": "Even faster",
          "downloadUrl": "https:\/\/shop5.moches.de\/downloads\/jtl_test_version201.zip"
        }
      },
      "links": [
        {
          "href": "https:\/\/guide.jtl-software.com\/erweiterungen\/paypal",
          "rel": "documentation"
        },
        {
          "href": "https:\/\/www.jtl-software.com\/ext-store\/jtl_paypal",
          "rel": "itemDetails"
        },
        {
          "href": "https:\/\/api.jtl-software.com/ext-store/bind/dk44djdnUm1LVlE9PSIsInZhbHVlIjoiVWZD",
          "rel": "setBinding"
        },
        {
          "href": "https:\/\/checkout.jtl-software.com/extensions/extendsub/dk44djdnUm1LVlE9PSIsInZhbHVlIjoiVWZD",
          "rel": "extendSubscription"
        }
      ]
    },
    {
      "id": "jtl_google_recaptcha",
      "type": "plugin",
      "name": "Google ReCaptcha für Shop5",
      "exsid": "jj44djdnUm1LVlE9PSIsInZhbHVlIjoiVWZD",
      "license": {
        "key": "LIC-0202",
        "type": "prod",
        "created": "2019-01-01T12:00:00.000Z",
        "validUntil": null,
        "subscription": {
          "validUntil": "2020-07-14T00:00:00.000Z"
        }
      },
      "vendor": {
        "name": "JTL-Software",
        "href": "https:\/\/www.jtl-software.de\/ext-store\/jtl-software-gmbh"
      },
      "releases": {
        "available": {
          "version": "1.0.0-beta.1",
          "type": "security",
          "releaseDate": "2020-04-06T12:12:52.620Z",
          "shortDescription": "Fixes no bugs at all",
          "downloadUrl": "https:\/\/shop5.moches.de\/downloads\/jtl_google_recaptcha-1.0.0-beta.1.zip"
        },
        "latest": {
          "version": "2.0.0",
          "type": "feature",
          "includesSecurityFixes": "true",
          "releaseDate": "2020-04-06T12:12:52.620Z",
          "shortDescription": "Even faster",
          "downloadUrl": "https:\/\/shop5.moches.de\/downloads\/jtl_google_recaptcha-2.0.0.zip"
        }
      },
      "links": [
        {
          "href": "https:\/\/guide.jtl-software.com\/erweiterungen\/paypal",
          "rel": "documentation"
        },
        {
          "href": "https:\/\/www.jtl-software.com\/ext-store\/jtl_paypal",
          "rel": "itemDetails"
        },
        {
          "href": "https:\/\/api.jtl-software.com/ext-store/bind/dk44djdnUm1LVlE9PSIsInZhbHVlIjoiVWZD",
          "rel": "setBinding"
        },
        {
          "href": "https:\/\/checkout.jtl-software.com/extensions/extendsub/dk44djdnUm1LVlE9PSIsInZhbHVlIjoiVWZD",
          "rel": "extendSubscription"
        }
      ]
    },
    {
      "id": "jtl_search",
      "type": "plugin",
      "name": "Eine tolle Suche für Ihren Shop5",
      "exsid": "qq44djdnUm1LVlE9PSIsInZhbHVlIjoiVWZD",
      "license": {
        "key": "LIC-1337",
        "type": "free",
        "created": "2020-04-01T12:00:00.000Z",
        "validUntil": null,
        "subscription": {
          "validUntil": "2020-08-09T00:00:00.000Z"
        }
      },
      "vendor": {
        "name": "JTL-Software",
        "href": "https:\/\/www.jtl-software.de/ext-store/jtl-software-gmbh"
      },
      "releases": {
        "available": {
          "version": "1.0.0",
          "type": "security",
          "releaseDate": "2020-04-06T12:12:52.620Z",
          "shortDescription": "Fixes XSS-Bug in Checkout Flow",
          "downloadUrl": "https:\/\/storage.jtl-software.com/extensions/get/dk44djdnUm1LVlE9PSIsInZhbHVlIjoiVWZD"
        },
        "latest": {
          "version": "2.0.0",
          "type": "feature",
          "includesSecurityFixes": "true",
          "releaseDate": "2020-04-06T12:12:52.620Z",
          "shortDescription": "Even faster",
          "downloadUrl": "https:\/\/shop5.moches.de/jtl-test-201.zip"
        }
      },
      "links": [
        {
          "href": "https:\/\/guide.jtl-software.com/erweiterungen/jtl_fooooobarrr",
          "rel": "documentation"
        },
        {
          "href": "https:\/\/www.jtl-software.com/ext-store/jtl_fooooobarrr",
          "rel": "itemDetails"
        },
        {
          "href": "https:\/\/api.jtl-software.com/ext-store/bind/qq4djdnUm1LVlE9PSIsInZhbHVlIjoiVWZD",
          "rel": "setBinding"
        },
        {
          "href": "https:\/\/checkout.jtl-software.com/extensions/extendsub/dk44djdnUm1LVlE9PSIsInZhbHVlIjoiVWZD",
          "rel": "extendSubscription"
        }
      ]
    },
    {
      "id": "fm_contact_forms2",
      "type": "plugin",
      "name": "ContactForms für Shop5",
      "exsid": "xx44djdnUm1LVlE9PSIsInZhbHVlIjoiVWZD",
      "license": {
        "key": "LIC-1234",
        "type": "dev",
        "created": "2020-04-01T12:00:00.000Z",
        "validUntil": null,
        "subscription": {
          "validUntil": "2020-09-09T00:00:00.000Z"
        }
      },
      "vendor": {
        "name": "Felix Moche",
        "href": "https:\/\/www.jtl-software.de/ext-store/jtl-software-gmbh"
      },
      "releases": {
        "available": {
          "version": "2.0.0",
          "type": "security",
          "releaseDate": "2020-04-06T12:12:52.620Z",
          "shortDescription": "Fixes XSS-Bug in Checkout Flow",
          "downloadUrl": "https:\/\/storage.jtl-software.com/extensions/get/dk44djdnUm1LVlE9PSIsInZhbHVlIjoiVWZD"
        },
        "latest": {
          "version": "2.0.0",
          "type": "feature",
          "includesSecurityFixes": "true",
          "releaseDate": "2020-04-06T12:12:52.620Z",
          "shortDescription": "Even faster",
          "downloadUrl": "https:\/\/shop5.moches.de/jtl-test-201.zip"
        }
      },
      "links": [
        {
          "href": "https:\/\/guide.jtl-software.com/erweiterungen/jtl_fooooobarrr",
          "rel": "documentation"
        },
        {
          "href": "https:\/\/www.jtl-software.com/ext-store/jtl_fooooobarrr",
          "rel": "itemDetails"
        },
        {
          "href": "https:\/\/api.jtl-software.com/ext-store/bind/qq4djdnUm1LVlE9PSIsInZhbHVlIjoiVWZD",
          "rel": "setBinding"
        },
        {
          "href": "https:\/\/checkout.jtl-software.com/extensions/extendsub/dk44djdnUm1LVlE9PSIsInZhbHVlIjoiVWZD",
          "rel": "extendSubscription"
        }
      ]
    },
    {
      "id": "jtl_preloader2",
      "type": "plugin",
      "name": "Preload Headers für Shop5",
      "exsid": "jtlpreloader12312412412412",
      "license": {
        "key": "LIC-1234",
        "type": "prod",
        "created": "2020-04-01T12:00:00.000Z",
        "validUntil": null,
        "subscription": {
          "validUntil": "2022-06-09T00:00:00.000Z"
        }
      },
      "vendor": {
        "name": "Felix Moche",
        "href": "https:\/\/www.jtl-software.de/ext-store/jtl-software-gmbh"
      },
      "releases": {
        "available": {
          "version": "2.0.1",
          "type": "security",
          "releaseDate": "2020-04-06T12:12:52.620Z",
          "shortDescription": "Fixes XSS-Bug in Checkout Flow",
          "downloadUrl": "https:\/\/shop5.moches.de\/downloads\/jtl_preloader2_2.0.1.zip"
        },
        "latest": {
          "version": "2.0.1",
          "type": "feature",
          "includesSecurityFixes": "true",
          "releaseDate": "2020-04-06T12:12:52.620Z",
          "shortDescription": "Even faster",
          "downloadUrl": "https:\/\/shop5.moches.de/jtl-test-201.zip"
        }
      },
      "links": [
        {
          "href": "https:\/\/guide.jtl-software.com/erweiterungen/jtl_fooooobarrr",
          "rel": "documentation"
        },
        {
          "href": "https:\/\/www.jtl-software.com/ext-store/jtl_fooooobarrr",
          "rel": "itemDetails"
        },
        {
          "href": "https:\/\/api.jtl-software.com/ext-store/bind/qq4djdnUm1LVlE9PSIsInZhbHVlIjoiVWZD",
          "rel": "setBinding"
        },
        {
          "href": "https:\/\/checkout.jtl-software.com/extensions/extendsub/dk44djdnUm1LVlE9PSIsInZhbHVlIjoiVWZD",
          "rel": "extendSubscription"
        }
      ]
    },
    {
      "id": "jtl_theme_editor",
      "type": "plugin",
      "name": "Theme Editor für NOVA-basierte Template in JTL-Shop5",
      "exsid": "jtlthemeeditor12312412423",
      "license": {
        "key": "LIC-1234",
        "type": "prod",
        "created": "2020-04-01T12:00:00.000Z",
        "validUntil": null,
        "subscription": {
          "validUntil": "2021-06-09T00:00:00.000Z"
        }
      },
      "vendor": {
        "name": "Felix Moche",
        "href": "https:\/\/www.jtl-software.de/ext-store/jtl-software-gmbh"
      },
      "releases": {
        "available": {
          "version": "1.1.1",
          "type": "security",
          "releaseDate": "2020-04-06T12:12:52.620Z",
          "shortDescription": "Fixes XSS-Bug in Checkout Flow",
          "downloadUrl": "https:\/\/shop5.moches.de\/downloads\/jtl_theme_editor_1.1.1.zip"
        },
        "latest": {
          "version": "1.1.1",
          "type": "feature",
          "includesSecurityFixes": "true",
          "releaseDate": "2020-04-06T12:12:52.620Z",
          "shortDescription": "Even faster",
          "downloadUrl": "https:\/\/shop5.moches.de/jtl-test-201.zip"
        }
      },
      "links": [
        {
          "href": "https:\/\/guide.jtl-software.com/erweiterungen/jtl_fooooobarrr",
          "rel": "documentation"
        },
        {
          "href": "https:\/\/www.jtl-software.com/ext-store/jtl_fooooobarrr",
          "rel": "itemDetails"
        },
        {
          "href": "https:\/\/api.jtl-software.com/ext-store/bind/qq4djdnUm1LVlE9PSIsInZhbHVlIjoiVWZD",
          "rel": "setBinding"
        },
        {
          "href": "https:\/\/checkout.jtl-software.com/extensions/extendsub/dk44djdnUm1LVlE9PSIsInZhbHVlIjoiVWZD",
          "rel": "extendSubscription"
        }
      ]
    },
    {
      "id": "NOVA",
      "type": "template",
      "name": "Das Standard-Template für JTL-Shop5",
      "exsid": "jtln0123456789",
      "license": {
        "key": "LIC-2337",
        "type": "free",
        "created": "2020-05-01T12:00:00.000Z",
        "validUntil": null,
        "subscription": {
          "validUntil": "2020-12-12T00:00:00.000Z"
        }
      },
      "vendor": {
        "name": "JTL-Software",
        "href": "https:\/\/www.jtl-software.de/ext-store/jtl-software-gmbh"
      },
      "releases": {
        "available": {
          "version": "1.0.1",
          "type": "security",
          "releaseDate": "2020-04-06T12:12:52.620Z",
          "shortDescription": "Fixes XSS-Bug in Checkout Flow",
          "downloadUrl": "https:\/\/shop5.moches.de\/downloads\/NOVA-1.0.1.zip"
        },
        "latest": {
          "version": "1.0.1",
          "type": "feature",
          "includesSecurityFixes": "true",
          "releaseDate": "2020-04-06T12:12:52.620Z",
          "shortDescription": "Even faster",
          "downloadUrl": "https:\/\/shop5.moches.de\/downloads\/NOVA-1.0.1.zip"
        }
      },
      "links": [
        {
          "href": "https:\/\/guide.jtl-software.com/erweiterungen/jtl_fooooobarrr",
          "rel": "documentation"
        },
        {
          "href": "https:\/\/www.jtl-software.com/ext-store/jtl_fooooobarrr",
          "rel": "itemDetails"
        },
        {
          "href": "https:\/\/api.jtl-software.com/ext-store/bind/qq4djdnUm1LVlE9PSIsInZhbHVlIjoiVWZD",
          "rel": "setBinding"
        },
        {
          "href": "https:\/\/checkout.jtl-software.com/extensions/extendsub/dk44djdnUm1LVlE9PSIsInZhbHVlIjoiVWZD",
          "rel": "extendSubscription"
        }
      ]
    },
    {
      "id": "NOVAchild",
      "type": "template",
      "name": "NOVA child template",
      "exsid": "jtlnc123456789",
      "license": {
        "key": "LIC-8337",
        "type": "prod",
        "created": "2020-05-01T12:00:00.000Z",
        "validUntil": "2021-01-01T12:00:00.000Z",
        "subscription": {
          "validUntil": null
        }
      },
      "vendor": {
        "name": "JTL-Software",
        "href": "https:\/\/www.jtl-software.de\/ext-store\/jtl-software-gmbh"
      },
      "releases": {
        "available": {
          "version": "1.2.0",
          "type": "security",
          "releaseDate": "2020-04-06T12:12:52.620Z",
          "shortDescription": "Even more beautiful",
          "downloadUrl": "https:\/\/shop5.moches.de\/downloads\/novachild-does-not-exist.zip"
        },
        "latest": {
          "version": "1.2.0",
          "type": "feature",
          "includesSecurityFixes": "true",
          "releaseDate": "2020-04-06T12:12:52.620Z",
          "shortDescription": "Even more beautiful",
          "downloadUrl": "https:\/\/shop5.moches.de\/downloads\/novachild-does-not-exist.zip"
        }
      },
      "links": [
        {
          "href": "https:\/\/guide.jtl-software.com\/erweiterungen\/jtl_fooooobarrr",
          "rel": "documentation"
        },
        {
          "href": "https:\/\/www.jtl-software.com\/ext-store\/jtl_fooooobarrr",
          "rel": "itemDetails"
        },
        {
          "href": "https:\/\/api.jtl-software.com\/ext-store\/bind\/qq4djdnUm1LVlE9PSIsInZhbHVlIjoiVWZD",
          "rel": "setBinding"
        },
        {
          "href": "https:\/\/checkout.jtl-software.com\/extensions\/extendsub\/dk44djdnUm1LVlE9PSIsInZhbHVlIjoiVWZD",
          "rel": "extendSubscription"
        }
      ]
    }
  ],
  "unbound": [
    {
      "id": "agws_schneefall",
      "name": "Der Klassiker",
      "exsid": "s9eifzg938org23fusglf7tg37r3rasdadwd",
      "license": {
        "key": "LIC-1204",
        "type": "free",
        "created": "2020-01-01T13:00:00.000Z",
        "validUntil": null,
        "subscription": "null"
      },
      "vendor": {
        "name": "AG-Websolutions",
        "href": "https:\/\/www.ag-websolutions.de"
      },
      "releases": {
        "available": {
          "version": "1.1.0",
          "type": "security",
          "releaseDate": "2020-04-06T12:12:52.620Z",
          "shortDescription": "Fixes XSS-Bug in Checkout Flow",
          "downloadUrl": "https:\/\/storage.jtl-software.com/extensions/get/dk44djdnUm1LVlE9PSIsInZhbHVlIjoiVWZD"
        }
      },
      "links": [
        {
          "href": "https:\/\/www.jtl-software.com/ext-store/ag_schneefall",
          "rel": "itemDetails"
        },
        {
          "href": "https:\/\/api.jtl-software.com/ext-store/bind/s9eifzg938org23fusglf7tg37r3rasdadwd",
          "rel": "setBinding"
        }
      ]
    },
    {
      "id": "fm_autolinker2",
      "name": "Schlüsselwörter automatisch verlinken",
      "exsid": "s9eifzg938org23fusglf7tg37r3rasdadwd",
      "license": {
        "key": "LIC-1204",
        "type": "free",
        "created": "2020-01-01T13:00:00.000Z",
        "validUntil": null,
        "subscription": "null"
      },
      "vendor": {
        "name": "Felix Moche",
        "href": "https:\/\/felix.moches.de"
      },
      "releases": {
        "available": {
          "version": "1.1.0",
          "type": "security",
          "releaseDate": "2020-04-06T12:12:52.620Z",
          "shortDescription": "Fixes XSS-Bug in Checkout Flow",
          "downloadUrl": "https:\/\/storage.jtl-software.com/extensions/get/dk44djdnUm1LVlE9PSIsInZhbHVlIjoiVWZD"
        }
      },
      "links": [
        {
          "href": "https:\/\/www.jtl-software.com/ext-store/fm",
          "rel": "itemDetails"
        },
        {
          "href": "https:\/\/api.jtl-software.com/ext-store/bind/s9eifzg938org23fusglf7tg37r3rasdadwd",
          "rel": "setBinding"
        }
      ]
    }
  ]
}
